[
	{
		"label": "Resize Queue",
		"tooltip": "Customize Resize Queue mod options.",
		"options": [
			{
				"type": "boolean",
				"label": "[color=\"220 185 70\"]Training Settings[/color] Enable Resize batch",
				"tooltip": "",
				"config": "boongui.trainer.enableUnits"
			},
			{
				"type": "slider",
				"label": "[color=\"220 185 70\"]Training Settings[/color] max units trained in batch ",
				"tooltip": "Set the maximum number of units trainable in a single batch",
				"config": "boongui.trainer.MaxBatchSize",
				"min": 1,
				"max": 100
			},
			{
				"type": "slider",
				"label": "[color=\"220 185 70\"]Training Settings[/color] food reserve",
				"tooltip": "Unit training won't consume food below this reserve",
				"config": "boongui.trainer.foodReserve",
				"min": 0,
				"max": 1000
			},
			{
				"type": "slider",
				"label": "[color=\"220 185 70\"]Training Settings[/color] wood reserve",
				"tooltip": "Unit training won't consume wood below this reserve",
				"config": "boongui.trainer.woodReserve",
				"min": 0,
				"max": 1000
			},
			{
				"type": "slider",
				"label": "[color=\"220 185 70\"]Training Settings[/color] stone reserve",
				"tooltip": "Unit training won't consume stone below this reserve",
				"config": "boongui.trainer.stoneReserve",
				"min": 0,
				"max": 1000
			},
			{
				"type": "slider",
				"label": "[color=\"220 185 70\"]Training Settings[/color] metal reserve",
				"tooltip": "Unit training won't consume metal below this reserve",
				"config": "boongui.trainer.metalReserve",
				"min": 0,
				"max": 1000
			},
			{
				"type": "boolean",
				"label": "[color=\"220 185 70\"]Training Settings[/color] Enable resize Corral ",
				"tooltip": "",
				"config": "boongui.trainer.enableCorral"
			},
			{
				"type": "slider",
				"label": "[color=\"220 185 70\"]Training Settings[/color] Corral MaxBatch",
				"tooltip": "Max units to train in corrals",
				"config": "boongui.trainer.corralBatchSize",
				"min": 0,
				"max": 10
			},
			{
				"type": "string",
				"label": "[color=\"220 185 70\"]Trainer[/color] Buildings",
				"tooltip": "Classes of buildings that are used by the trainer, if nothing set, a default list will be used",
				"config": "boongui.trainer.trainerClasses"
			}
		]
	}
]